<svg xmlns="http://www.w3.org/2000/svg" width="138" height="60.884" viewBox="0 0 138 60.884">
  <g id="header-logo-agres-warna" transform="translate(1.186 -0.404)">
    <g id="Group_111" data-name="Group 111" transform="translate(45.756 0.404)">
      <path id="Path_193" data-name="Path 193" d="M366.641,57.629c-.074-.44-.045.9-.045,1.349a19.7,19.7,0,1,0,33.78-13.784,18.615,18.615,0,0,1,2.071,7.468,14.923,14.923,0,0,1-5,10.855c-.968.775-4.157,3.921-8.686,4.115-.85.024-6.1.351-6.423-5.966,0-.708.635-7.37,8.441-8.169a5.3,5.3,0,0,0-3.612-1.18,8.751,8.751,0,0,0-3.74,1.1c-.209.109-.408.219-.591.322a5.776,5.776,0,0,1-2.8.761h-.044c-.018.018,3.948-2.088,3.948-2.088s-.33-.424-2.23-.424c-.472,0-12.814.678-11.441,14.4A18.719,18.719,0,0,1,366.641,57.629Z" transform="translate(-366.59 -39.477)" fill="#fe0000"/>
      <path id="Path_194" data-name="Path 194" d="M431.147,61.579a19.651,19.651,0,0,1-35.731,11.294A19.651,19.651,0,0,0,425.8,48.107,19.578,19.578,0,0,1,431.147,61.579Z" transform="translate(-391.737 -42.018)" fill="#d00102"/>
      <rect id="Rectangle_161" data-name="Rectangle 161" width="2.929" height="2.929" transform="translate(38.259 2.645)" fill="#fe0000"/>
      <rect id="Rectangle_162" data-name="Rectangle 162" width="2.929" height="2.929" transform="translate(41.187 5.573)" fill="#fe0000"/>
      <rect id="Rectangle_163" data-name="Rectangle 163" width="2.929" height="2.929" transform="translate(38.259 8.502)" fill="#fe0000"/>
      <path id="Path_195" data-name="Path 195" d="M463.91,2.226s11.763-.98,15.575,7.37c.472,1.271,3.812,7.3-1.96,16.192,0-.036,8.023-3.776,8.277-12.707,0-.908-.442-11.944-14.2-12.67A16.231,16.231,0,0,0,463.91,2.226Z" transform="translate(-451.488 -0.404)" fill="#fe0000"/>
      <path id="Path_196" data-name="Path 196" d="M370.045,38.561s3.885-8.75,13.251-8.641a14.4,14.4,0,0,1,13.723,10.2c0,.062,1.85-9.867-7.055-13.5a14.737,14.737,0,0,0-11.623.138C374.962,28.28,371.2,31.54,370.045,38.561Z" transform="translate(-369.604 -22.29)" fill="#fe0000"/>
    </g>
    <g id="Group_112" data-name="Group 112" transform="translate(-1.186 44.868)">
      <path id="Path_197" data-name="Path 197" d="M21.578,365.19h-5.2L10.2,354.9,4.012,365.19h-5.2L7.6,350.575l.305-.507a2.676,2.676,0,0,1,4.587,0l.305.507Z" transform="translate(1.186 -348.77)"/>
      <path id="Path_198" data-name="Path 198" d="M185.075,355.367v9.818h-10.2a8.441,8.441,0,0,1-.972-.057,8.218,8.218,0,0,1-6.182-4.122,8.21,8.21,0,0,1,7.154-12.241h9.206v4.179h-9.169a4.031,4.031,0,1,0,0,8.063h6v-1.664h-7v-3.975Z" transform="translate(-145.241 -348.765)"/>
      <path id="Path_199" data-name="Path 199" d="M892.373,348.765v16.42h-4.095v-12.4h1.989l-1.989-1.236v-2.786Z" transform="translate(-774.748 -348.765)"/>
      <path id="Path_200" data-name="Path 200" d="M342.918,357.5a5.426,5.426,0,0,0,1.116-3.3,5.431,5.431,0,0,0-5.436-5.434H325.716v2.946l1.989,1.236h-1.989v12.238h4.095v-5.55h8.816a1.205,1.205,0,0,1,1.206,1.206v4.344h4.2V360.8a5.432,5.432,0,0,0-1.116-3.3Zm-4.291-2.137h-8.816v-2.413h8.816a1.207,1.207,0,0,1,0,2.413Z" transform="translate(-283.991 -348.768)"/>
      <path id="Path_201" data-name="Path 201" d="M491.85,355.018h11.608v4.126H491.85v1.807H505.9v4.3H490.341a2.741,2.741,0,0,1-2.741-2.741V351.59a2.741,2.741,0,0,1,2.741-2.741H505.9v4.3H491.85Z" transform="translate(-425.212 -348.838)"/>
      <path id="Path_202" data-name="Path 202" d="M663.045,360.365v.064a5.015,5.015,0,0,1-5.02,5.02h-8.571a5.015,5.015,0,0,1-5.02-5.02v-.064h4.2a1.208,1.208,0,0,0,1.207,1.207h7.7a1.207,1.207,0,0,0,0-2.413h-8.171a5.018,5.018,0,0,1-5.019-4.956v-.064a5.015,5.015,0,0,1,5.019-5.02h8.571a5.016,5.016,0,0,1,5.02,5.02v.064h-4.2A1.208,1.208,0,0,0,657.554,353h-7.7a1.207,1.207,0,0,0,0,2.413h8.169a5.017,5.017,0,0,1,5.02,4.956Z" transform="translate(-561.958 -349.074)"/>
      <rect id="Rectangle_164" data-name="Rectangle 164" width="4.212" height="4.212" transform="translate(105.647 12.164)"/>
      <path id="Path_203" data-name="Path 203" d="M952.8,353.187a8.171,8.171,0,0,0-7.117-4.152H935.405v16.352h10.281a8.177,8.177,0,0,0,7.117-12.2Zm-13.3,7.984v-7.984h6.072a3.992,3.992,0,1,1,0,7.984Z" transform="translate(-815.86 -349)"/>
    </g>
  </g>
</svg>
